EESchema Schematic File Version 4
EELAYER 30 0
EELAYER END
$Descr A4 11693 8268
encoding utf-8
Sheet 1 1
Title ""
Date ""
Rev ""
Comp ""
Comment1 ""
Comment2 ""
Comment3 ""
Comment4 ""
$EndDescr
$Comp
L Connector:Jack-DC J1
U 1 1 61A65828
P 800 900
F 0 "J1" H 857 1225 50  0000 C CNN
F 1 "Jack-DC" H 857 1134 50  0000 C CNN
F 2 "Connector_BarrelJack:BarrelJack_Wuerth_6941xx301002" H 850 860 50  0001 C CNN
F 3 "~" H 850 860 50  0001 C CNN
	1    800  900 
	1    0    0    -1  
$EndComp
$Comp
L power:GND #PWR?
U 1 1 61A66486
P 1150 1100
F 0 "#PWR?" H 1150 850 50  0001 C CNN
F 1 "GND" H 1155 927 50  0000 C CNN
F 2 "" H 1150 1100 50  0001 C CNN
F 3 "" H 1150 1100 50  0001 C CNN
	1    1150 1100
	1    0    0    -1  
$EndComp
Wire Wire Line
	1100 1000 1150 1000
$Comp
L Modum:LDL212_ADJ_SO8 U1
U 1 1 61A67839
P 4350 800
F 0 "U1" H 4350 1042 50  0000 C CNN
F 1 "LDL212_ADJ_SO8" H 4350 951 50  0000 C CNN
F 2 "Package_SO:SO-8_3.9x4.9mm_P1.27mm" H 4350 1050 50  0001 C CNN
F 3 "https://pl.mouser.com/datasheet/2/389/dm00225720-1798688.pdf" H 4350 1050 50  0001 C CNN
	1    4350 800 
	1    0    0    -1  
$EndComp
$Comp
L Modum:LDL212_ADJ_SO8 U3
U 1 1 61A67F1A
P 6000 1150
F 0 "U3" H 6000 1392 50  0000 C CNN
F 1 "LDL212_ADJ_SO8" H 6000 1301 50  0000 C CNN
F 2 "Package_SO:SO-8_3.9x4.9mm_P1.27mm" H 6000 1400 50  0001 C CNN
F 3 "https://pl.mouser.com/datasheet/2/389/dm00225720-1798688.pdf" H 6000 1400 50  0001 C CNN
	1    6000 1150
	1    0    0    -1  
$EndComp
$Comp
L Device:L_Core_Ferrite L2
U 1 1 61A6B177
P 3300 2150
F 0 "L2" V 3525 2150 50  0000 C CNN
F 1 "12uH" V 3434 2150 50  0000 C CNN
F 2 "Inductor_SMD:L_Bourns-SRN6028" H 3300 2150 50  0001 C CNN
F 3 "https://pl.mouser.com/datasheet/2/54/srr6028-1391281.pdf" H 3300 2150 50  0001 C CNN
	1    3300 2150
	0    -1   -1   0   
$EndComp
$Comp
L Device:CP1_Small C3
U 1 1 61A7ACFD
P 2650 950
F 0 "C3" H 2741 1041 50  0000 L CNN
F 1 "1mF" H 2741 950 50  0000 L CNN
F 2 "Capacitor_THT:CP_Radial_D10.0mm_P5.00mm" H 2650 950 50  0001 C CNN
F 3 "https://www.mouser.pl/datasheet/2/445/860020475018-1725586.pdf" H 2650 950 50  0001 C CNN
F 4 "" H 2741 859 50  0000 L CNN "Breakdown"
F 5 "710-860020475018 " H 2650 950 50  0001 C CNN "Numer"
	1    2650 950 
	1    0    0    -1  
$EndComp
$Comp
L Diode:1N4007 D1
U 1 1 61A7C2C4
P 1350 950
F 0 "D1" V 1304 1030 50  0000 L CNN
F 1 "1N4007" V 1395 1030 50  0000 L CNN
F 2 "Diode_THT:D_DO-41_SOD81_P10.16mm_Horizontal" H 1350 775 50  0001 C CNN
F 3 "http://www.vishay.com/docs/88503/1n4001.pdf" H 1350 950 50  0001 C CNN
	1    1350 950 
	0    1    1    0   
$EndComp
$Comp
L Device:C_Small C1
U 1 1 61A834A8
P 1850 950
F 0 "C1" H 1942 996 50  0000 L CNN
F 1 "100pF" H 1942 905 50  0000 L CNN
F 2 "Capacitor_SMD:C_0603_1608Metric_Pad1.08x0.95mm_HandSolder" H 1850 950 50  0001 C CNN
F 3 "https://www.mouser.pl/datasheet/2/445/885342206001-1728024.pdf" H 1850 950 50  0001 C CNN
F 4 "710-885342206001 " H 1850 950 50  0001 C CNN "Numer"
F 5 "X7R" H 1850 950 50  0001 C CNN "Type"
	1    1850 950 
	1    0    0    -1  
$EndComp
$Comp
L Device:C_Small C2
U 1 1 61A84397
P 2250 950
F 0 "C2" H 2342 996 50  0000 L CNN
F 1 "100nF" H 2342 905 50  0000 L CNN
F 2 "Capacitor_SMD:C_0603_1608Metric_Pad1.08x0.95mm_HandSolder" H 2250 950 50  0001 C CNN
F 3 "ten co wszedzie" H 2250 950 50  0001 C CNN
	1    2250 950 
	1    0    0    -1  
$EndComp
Wire Wire Line
	1100 800  1350 800 
Wire Wire Line
	1350 800  1850 800 
Wire Wire Line
	1850 800  1850 850 
Connection ~ 1350 800 
Wire Wire Line
	1850 800  2250 800 
Wire Wire Line
	2250 800  2250 850 
Connection ~ 1850 800 
Wire Wire Line
	2250 800  2650 800 
Wire Wire Line
	2650 800  2650 850 
Connection ~ 2250 800 
Wire Wire Line
	2650 800  3100 800 
Connection ~ 2650 800 
$Comp
L power:GND #PWR?
U 1 1 61A8E0BD
P 1350 1100
F 0 "#PWR?" H 1350 850 50  0001 C CNN
F 1 "GND" H 1355 927 50  0000 C CNN
F 2 "" H 1350 1100 50  0001 C CNN
F 3 "" H 1350 1100 50  0001 C CNN
	1    1350 1100
	1    0    0    -1  
$EndComp
Wire Wire Line
	1150 1000 1150 1100
$Comp
L power:GND #PWR?
U 1 1 61A9028E
P 1850 1100
F 0 "#PWR?" H 1850 850 50  0001 C CNN
F 1 "GND" H 1855 927 50  0000 C CNN
F 2 "" H 1850 1100 50  0001 C CNN
F 3 "" H 1850 1100 50  0001 C CNN
	1    1850 1100
	1    0    0    -1  
$EndComp
$Comp
L power:GND #PWR?
U 1 1 61A9081A
P 2250 1100
F 0 "#PWR?" H 2250 850 50  0001 C CNN
F 1 "GND" H 2255 927 50  0000 C CNN
F 2 "" H 2250 1100 50  0001 C CNN
F 3 "" H 2250 1100 50  0001 C CNN
	1    2250 1100
	1    0    0    -1  
$EndComp
$Comp
L power:GND #PWR?
U 1 1 61A90D29
P 2650 1300
F 0 "#PWR?" H 2650 1050 50  0001 C CNN
F 1 "GND" H 2655 1127 50  0000 C CNN
F 2 "" H 2650 1300 50  0001 C CNN
F 3 "" H 2650 1300 50  0001 C CNN
	1    2650 1300
	1    0    0    -1  
$EndComp
Wire Wire Line
	2650 1050 2650 1100
Wire Wire Line
	2250 1050 2250 1100
Wire Wire Line
	1850 1050 1850 1100
$Comp
L power:GND #PWR?
U 1 1 61A92268
P 4350 1200
F 0 "#PWR?" H 4350 950 50  0001 C CNN
F 1 "GND" H 4355 1027 50  0000 C CNN
F 2 "" H 4350 1200 50  0001 C CNN
F 3 "" H 4350 1200 50  0001 C CNN
	1    4350 1200
	1    0    0    -1  
$EndComp
Connection ~ 3100 800 
$Comp
L power:+12V #PWR?
U 1 1 61AA316B
P 3100 750
F 0 "#PWR?" H 3100 600 50  0001 C CNN
F 1 "+12V" H 3115 923 50  0000 C CNN
F 2 "" H 3100 750 50  0001 C CNN
F 3 "" H 3100 750 50  0001 C CNN
	1    3100 750 
	1    0    0    -1  
$EndComp
$Comp
L power:+3V3 #PWR?
U 1 1 61AA413C
P 7350 2100
F 0 "#PWR?" H 7350 1950 50  0001 C CNN
F 1 "+3V3" H 7365 2273 50  0000 C CNN
F 2 "" H 7350 2100 50  0001 C CNN
F 3 "" H 7350 2100 50  0001 C CNN
	1    7350 2100
	1    0    0    -1  
$EndComp
Wire Wire Line
	3100 750  3100 800 
$Comp
L Device:R_Small R2
U 1 1 61AC138E
P 4850 900
F 0 "R2" H 4909 946 50  0000 L CNN
F 1 "2M2" H 4909 855 50  0000 L CNN
F 2 "Resistor_SMD:R_0603_1608Metric_Pad0.98x0.95mm_HandSolder" H 4850 900 50  0001 C CNN
F 3 "~" H 4850 900 50  0001 C CNN
	1    4850 900 
	1    0    0    -1  
$EndComp
Wire Wire Line
	3950 1000 3900 1000
Wire Wire Line
	3900 1000 3900 800 
Wire Wire Line
	3900 800  3950 800 
Wire Wire Line
	4750 800  4850 800 
Wire Wire Line
	4750 1000 4850 1000
Connection ~ 4850 1000
$Comp
L Device:R_Small R3
U 1 1 61AC8D9D
P 4850 1100
F 0 "R3" H 4909 1146 50  0000 L CNN
F 1 "330k" H 4909 1055 50  0000 L CNN
F 2 "Resistor_SMD:R_0603_1608Metric_Pad0.98x0.95mm_HandSolder" H 4850 1100 50  0001 C CNN
F 3 "~" H 4850 1100 50  0001 C CNN
	1    4850 1100
	1    0    0    -1  
$EndComp
$Comp
L power:GND #PWR?
U 1 1 61AE1F02
P 3550 1100
F 0 "#PWR?" H 3550 850 50  0001 C CNN
F 1 "GND" H 3555 927 50  0000 C CNN
F 2 "" H 3550 1100 50  0001 C CNN
F 3 "" H 3550 1100 50  0001 C CNN
	1    3550 1100
	1    0    0    -1  
$EndComp
Wire Wire Line
	3450 800  3550 800 
Wire Wire Line
	3550 900  3550 800 
Wire Wire Line
	3150 800  3100 800 
Wire Wire Line
	3900 800  3550 800 
Connection ~ 3900 800 
Connection ~ 3550 800 
$Comp
L power:GND #PWR?
U 1 1 61AF1BB2
P 4850 1200
F 0 "#PWR?" H 4850 950 50  0001 C CNN
F 1 "GND" H 4855 1027 50  0000 C CNN
F 2 "" H 4850 1200 50  0001 C CNN
F 3 "" H 4850 1200 50  0001 C CNN
	1    4850 1200
	1    0    0    -1  
$EndComp
Wire Wire Line
	5600 1350 5550 1350
Wire Wire Line
	5550 1350 5550 1150
Wire Wire Line
	5550 1150 5600 1150
Connection ~ 4850 800 
Wire Wire Line
	5200 900  5200 800 
Connection ~ 5200 800 
Wire Wire Line
	5200 800  4850 800 
$Comp
L power:GND #PWR?
U 1 1 61B031B7
P 5200 1200
F 0 "#PWR?" H 5200 950 50  0001 C CNN
F 1 "GND" H 5205 1027 50  0000 C CNN
F 2 "" H 5200 1200 50  0001 C CNN
F 3 "" H 5200 1200 50  0001 C CNN
	1    5200 1200
	1    0    0    -1  
$EndComp
Wire Wire Line
	5200 1200 5200 1100
$Comp
L power:GND #PWR?
U 1 1 61B04075
P 6000 1550
F 0 "#PWR?" H 6000 1300 50  0001 C CNN
F 1 "GND" H 6005 1377 50  0000 C CNN
F 2 "" H 6000 1550 50  0001 C CNN
F 3 "" H 6000 1550 50  0001 C CNN
	1    6000 1550
	1    0    0    -1  
$EndComp
$Comp
L Device:R_Small R6
U 1 1 61B0CEA7
P 6500 1250
F 0 "R6" H 6559 1296 50  0000 L CNN
F 1 "1M5" H 6559 1205 50  0000 L CNN
F 2 "Resistor_SMD:R_0603_1608Metric_Pad0.98x0.95mm_HandSolder" H 6500 1250 50  0001 C CNN
F 3 "~" H 6500 1250 50  0001 C CNN
	1    6500 1250
	1    0    0    -1  
$EndComp
$Comp
L Device:R_Small R7
U 1 1 61B0D5D0
P 6500 1450
F 0 "R7" H 6559 1496 50  0000 L CNN
F 1 "470k" H 6559 1405 50  0000 L CNN
F 2 "Resistor_SMD:R_0603_1608Metric_Pad0.98x0.95mm_HandSolder" H 6500 1450 50  0001 C CNN
F 3 "~" H 6500 1450 50  0001 C CNN
	1    6500 1450
	1    0    0    -1  
$EndComp
$Comp
L power:GND #PWR?
U 1 1 61B0DF4B
P 6500 1550
F 0 "#PWR?" H 6500 1300 50  0001 C CNN
F 1 "GND" H 6505 1377 50  0000 C CNN
F 2 "" H 6500 1550 50  0001 C CNN
F 3 "" H 6500 1550 50  0001 C CNN
	1    6500 1550
	1    0    0    -1  
$EndComp
$Comp
L power:GND #PWR?
U 1 1 61B0EACA
P 6850 1550
F 0 "#PWR?" H 6850 1300 50  0001 C CNN
F 1 "GND" H 6855 1377 50  0000 C CNN
F 2 "" H 6850 1550 50  0001 C CNN
F 3 "" H 6850 1550 50  0001 C CNN
	1    6850 1550
	1    0    0    -1  
$EndComp
Wire Wire Line
	6850 1550 6850 1450
Wire Wire Line
	6850 1250 6850 1150
Wire Wire Line
	6500 1150 6400 1150
Connection ~ 6500 1150
Wire Wire Line
	6400 1350 6500 1350
Connection ~ 6500 1350
Wire Wire Line
	5500 800  5200 800 
$Comp
L power:+9VA #PWR?
U 1 1 61B1957E
P 5500 750
F 0 "#PWR?" H 5500 625 50  0001 C CNN
F 1 "+9VA" H 5515 923 50  0000 C CNN
F 2 "" H 5500 750 50  0001 C CNN
F 3 "" H 5500 750 50  0001 C CNN
	1    5500 750 
	1    0    0    -1  
$EndComp
$Comp
L power:+5VA #PWR?
U 1 1 61B1A225
P 7200 1100
F 0 "#PWR?" H 7200 950 50  0001 C CNN
F 1 "+5VA" H 7215 1273 50  0000 C CNN
F 2 "" H 7200 1100 50  0001 C CNN
F 3 "" H 7200 1100 50  0001 C CNN
	1    7200 1100
	1    0    0    -1  
$EndComp
Wire Wire Line
	5500 750  5500 800 
Text Notes 1150 700  0    50   ~ 0
Jakiś PTC / polyfuse na wejściu?
$Comp
L Device:LED D3
U 1 1 61B25F59
P 7350 2500
F 0 "D3" V 7389 2382 50  0000 R CNN
F 1 "G_LED" V 7298 2382 50  0000 R CNN
F 2 "LED_SMD:LED_0603_1608Metric_Pad1.05x0.95mm_HandSolder" H 7350 2500 50  0001 C CNN
F 3 "~" H 7350 2500 50  0001 C CNN
	1    7350 2500
	0    -1   -1   0   
$EndComp
$Comp
L Device:LED D2
U 1 1 61B27582
P 7200 1550
F 0 "D2" V 7239 1432 50  0000 R CNN
F 1 "R_LED" V 7148 1432 50  0000 R CNN
F 2 "LED_SMD:LED_0603_1608Metric_Pad1.05x0.95mm_HandSolder" H 7200 1550 50  0001 C CNN
F 3 "~" H 7200 1550 50  0001 C CNN
	1    7200 1550
	0    -1   -1   0   
$EndComp
$Comp
L Device:R_Small R9
U 1 1 61B2994C
P 7350 2250
F 0 "R9" V 7154 2250 50  0000 C CNN
F 1 "150" V 7245 2250 50  0000 C CNN
F 2 "Resistor_SMD:R_0603_1608Metric_Pad0.98x0.95mm_HandSolder" H 7350 2250 50  0001 C CNN
F 3 "~" H 7350 2250 50  0001 C CNN
	1    7350 2250
	-1   0    0    1   
$EndComp
$Comp
L Device:R_Small R8
U 1 1 61B2A779
P 7200 1300
F 0 "R8" V 7004 1300 50  0000 C CNN
F 1 "330" V 7095 1300 50  0000 C CNN
F 2 "Resistor_SMD:R_0603_1608Metric_Pad0.98x0.95mm_HandSolder" H 7200 1300 50  0001 C CNN
F 3 "~" H 7200 1300 50  0001 C CNN
	1    7200 1300
	-1   0    0    1   
$EndComp
$Comp
L power:GND #PWR?
U 1 1 61B2F87D
P 7200 1700
F 0 "#PWR?" H 7200 1450 50  0001 C CNN
F 1 "GND" H 7205 1527 50  0000 C CNN
F 2 "" H 7200 1700 50  0001 C CNN
F 3 "" H 7200 1700 50  0001 C CNN
	1    7200 1700
	1    0    0    -1  
$EndComp
$Comp
L power:GND #PWR?
U 1 1 61B2FFB6
P 7350 2650
F 0 "#PWR?" H 7350 2400 50  0001 C CNN
F 1 "GND" H 7355 2477 50  0000 C CNN
F 2 "" H 7350 2650 50  0001 C CNN
F 3 "" H 7350 2650 50  0001 C CNN
	1    7350 2650
	1    0    0    -1  
$EndComp
Text Notes 7550 2100 0    50   ~ 0
Status ledy opcjonalne\nmozna nie wstawić R
Text Notes 650  1150 0    50   ~ 0
12V DC in
$Comp
L Modum:RPX-4.0 U2
U 1 1 61A956C0
P 5250 2150
F 0 "U2" H 5250 2450 50  0000 C CNN
F 1 "RPX-4.0" H 5250 2350 50  0000 C CNN
F 2 "Modum:Converter_DCDC_RECOM_RPX-4.0_SMD" H 5250 2150 50  0001 C CNN
F 3 "https://www.tme.eu/Document/6c926c54fc4a18563a36fec6511c112b/RPX-4.0-DTE.pdf" H 5250 2150 50  0001 C CNN
	1    5250 2150
	1    0    0    -1  
$EndComp
$Comp
L Device:R_Small R4
U 1 1 61A9E43F
P 5850 2250
F 0 "R4" H 5909 2296 50  0000 L CNN
F 1 "10k" H 5909 2205 50  0000 L CNN
F 2 "Resistor_SMD:R_0603_1608Metric_Pad0.98x0.95mm_HandSolder" H 5850 2250 50  0001 C CNN
F 3 "~" H 5850 2250 50  0001 C CNN
	1    5850 2250
	1    0    0    -1  
$EndComp
$Comp
L Device:R_Small R5
U 1 1 61A9E96B
P 5850 2450
F 0 "R5" H 5909 2496 50  0000 L CNN
F 1 "4k32" H 5909 2405 50  0000 L CNN
F 2 "Resistor_SMD:R_0603_1608Metric_Pad0.98x0.95mm_HandSolder" H 5850 2450 50  0001 C CNN
F 3 "~" H 5850 2450 50  0001 C CNN
	1    5850 2450
	1    0    0    -1  
$EndComp
$Comp
L Device:C_Small C8
U 1 1 61AA2025
P 6200 2350
F 0 "C8" H 6292 2396 50  0000 L CNN
F 1 "52uF" H 6292 2305 50  0000 L CNN
F 2 "Capacitor_SMD:C_1206_3216Metric_Pad1.33x1.80mm_HandSolder" H 6200 2350 50  0001 C CNN
F 3 "https://pl.mouser.com/datasheet/2/585/MLCC-1837944.pdf" H 6200 2350 50  0001 C CNN
F 4 "X5R / X7R" H 6500 2200 50  0000 C CNN "Type"
F 5 "CL31A476MQHNNNE " H 6200 2350 50  0001 C CNN "Numer"
	1    6200 2350
	1    0    0    -1  
$EndComp
NoConn ~ 4700 2050
NoConn ~ 5800 2050
Wire Wire Line
	5300 2600 5300 2650
Wire Wire Line
	5300 2650 5200 2650
Wire Wire Line
	5200 2650 5200 2600
$Comp
L power:GND #PWR?
U 1 1 61AAB7E5
P 5200 2650
F 0 "#PWR?" H 5200 2400 50  0001 C CNN
F 1 "GND" H 5205 2477 50  0000 C CNN
F 2 "" H 5200 2650 50  0001 C CNN
F 3 "" H 5200 2650 50  0001 C CNN
	1    5200 2650
	1    0    0    -1  
$EndComp
Connection ~ 5200 2650
Wire Wire Line
	5850 2650 5850 2550
Wire Wire Line
	5800 2350 5850 2350
Connection ~ 5850 2350
Wire Wire Line
	5800 2150 5850 2150
Connection ~ 5850 2150
$Comp
L power:GND #PWR?
U 1 1 61ABF0D6
P 6200 2650
F 0 "#PWR?" H 6200 2400 50  0001 C CNN
F 1 "GND" H 6205 2477 50  0000 C CNN
F 2 "" H 6200 2650 50  0001 C CNN
F 3 "" H 6200 2650 50  0001 C CNN
	1    6200 2650
	1    0    0    -1  
$EndComp
$Comp
L power:GND #PWR?
U 1 1 61ABF807
P 6750 2650
F 0 "#PWR?" H 6750 2400 50  0001 C CNN
F 1 "GND" H 6755 2477 50  0000 C CNN
F 2 "" H 6750 2650 50  0001 C CNN
F 3 "" H 6750 2650 50  0001 C CNN
	1    6750 2650
	1    0    0    -1  
$EndComp
Wire Wire Line
	6750 2650 6750 2450
Wire Wire Line
	6750 2250 6750 2150
Wire Wire Line
	5850 2150 6200 2150
Wire Wire Line
	6200 2250 6200 2150
Connection ~ 6200 2150
Wire Wire Line
	6200 2150 6750 2150
Wire Wire Line
	6200 2450 6200 2650
Wire Wire Line
	4700 2350 4650 2350
Wire Wire Line
	4650 2350 4650 2150
Wire Wire Line
	4650 2150 4700 2150
$Comp
L Device:C_Small C5
U 1 1 61ACF869
P 3800 2300
F 0 "C5" H 3892 2346 50  0000 L CNN
F 1 "10uF" H 3892 2255 50  0000 L CNN
F 2 "Capacitor_SMD:C_1206_3216Metric_Pad1.33x1.80mm_HandSolder" H 3800 2300 50  0001 C CNN
F 3 "https://product.tdk.com/system/files/dam/doc/product/capacitor/ceramic/mlcc/catalog/mlcc_automotive_soft_cna_en.pdf" H 3800 2300 50  0001 C CNN
F 4 "X5R / X7R" H 4100 2150 50  0000 C CNN "Type"
F 5 "CNA5L1X7R1E106K160AE" H 3800 2300 50  0001 C CNN "Numer"
	1    3800 2300
	1    0    0    -1  
$EndComp
$Comp
L power:GND #PWR?
U 1 1 61AD0153
P 4350 2650
F 0 "#PWR?" H 4350 2400 50  0001 C CNN
F 1 "GND" H 4355 2477 50  0000 C CNN
F 2 "" H 4350 2650 50  0001 C CNN
F 3 "" H 4350 2650 50  0001 C CNN
	1    4350 2650
	1    0    0    -1  
$EndComp
$Comp
L power:GND #PWR?
U 1 1 61AD097B
P 3800 2650
F 0 "#PWR?" H 3800 2400 50  0001 C CNN
F 1 "GND" H 3805 2477 50  0000 C CNN
F 2 "" H 3800 2650 50  0001 C CNN
F 3 "" H 3800 2650 50  0001 C CNN
	1    3800 2650
	1    0    0    -1  
$EndComp
Wire Wire Line
	3800 2650 3800 2400
Wire Wire Line
	4650 2150 4350 2150
Wire Wire Line
	4350 2150 4350 2200
Connection ~ 4650 2150
Wire Wire Line
	4350 2150 3800 2150
Wire Wire Line
	3800 2150 3800 2200
Connection ~ 4350 2150
Text Notes 5150 3100 0    50   ~ 0
4k32 połączyć ścieżką,\na nie płaszczyzną,\nprzez pin12 do GND !
$Comp
L Device:L_Core_Ferrite L1
U 1 1 61AE66DB
P 3300 800
F 0 "L1" V 3525 800 50  0000 C CNN
F 1 "12uH" V 3434 800 50  0000 C CNN
F 2 "Inductor_SMD:L_Bourns-SRN6028" H 3300 800 50  0001 C CNN
F 3 "https://pl.mouser.com/datasheet/2/54/srr6028-1391281.pdf" H 3300 800 50  0001 C CNN
	1    3300 800 
	0    -1   -1   0   
$EndComp
Connection ~ 6750 2150
Wire Wire Line
	3450 2150 3800 2150
Connection ~ 3800 2150
Wire Wire Line
	5500 800  5550 800 
Wire Wire Line
	5550 800  5550 1150
Connection ~ 5500 800 
Connection ~ 5550 1150
$Comp
L Device:C_Small C9
U 1 1 61B2A65F
P 6750 2350
F 0 "C9" H 6842 2396 50  0000 L CNN
F 1 "52uF" H 6842 2305 50  0000 L CNN
F 2 "Capacitor_SMD:C_1206_3216Metric_Pad1.33x1.80mm_HandSolder" H 6750 2350 50  0001 C CNN
F 3 "https://pl.mouser.com/datasheet/2/585/MLCC-1837944.pdf" H 6750 2350 50  0001 C CNN
F 4 "X5R / X7R" H 7050 2200 50  0000 C CNN "Type"
F 5 "CL31A476MQHNNNE " H 6750 2350 50  0001 C CNN "Numer"
	1    6750 2350
	1    0    0    -1  
$EndComp
$Comp
L Device:C_Small C6
U 1 1 61B2C25B
P 4350 2300
F 0 "C6" H 4442 2346 50  0000 L CNN
F 1 "10uF" H 4442 2255 50  0000 L CNN
F 2 "Capacitor_SMD:C_1206_3216Metric_Pad1.33x1.80mm_HandSolder" H 4350 2300 50  0001 C CNN
F 3 "https://product.tdk.com/system/files/dam/doc/product/capacitor/ceramic/mlcc/catalog/mlcc_automotive_soft_cna_en.pdf" H 4350 2300 50  0001 C CNN
F 4 "X5R / X7R" H 4650 2150 50  0000 C CNN "Type"
F 5 "CNA5L1X7R1E106K160AE" H 4350 2300 50  0001 C CNN "Numer"
	1    4350 2300
	1    0    0    -1  
$EndComp
$Comp
L Device:C_Small C4
U 1 1 61B2E03C
P 3550 1000
F 0 "C4" H 3642 1046 50  0000 L CNN
F 1 "10uF" H 3642 955 50  0000 L CNN
F 2 "Capacitor_SMD:C_1206_3216Metric_Pad1.33x1.80mm_HandSolder" H 3550 1000 50  0001 C CNN
F 3 "https://product.tdk.com/system/files/dam/doc/product/capacitor/ceramic/mlcc/catalog/mlcc_automotive_soft_cna_en.pdf" H 3550 1000 50  0001 C CNN
F 4 "X5R / X7R" H 3850 850 50  0000 C CNN "Type"
F 5 "CNA5L1X7R1E106K160AE" H 3550 1000 50  0001 C CNN "Numer"
	1    3550 1000
	1    0    0    -1  
$EndComp
Wire Wire Line
	4350 2400 4350 2650
$Comp
L Device:R_Small R1
U 1 1 61C9A20D
P 2650 1200
F 0 "R1" H 2709 1246 50  0000 L CNN
F 1 "10R/0R" H 2709 1155 50  0000 L CNN
F 2 "Resistor_SMD:R_0603_1608Metric_Pad0.98x0.95mm_HandSolder" H 2650 1200 50  0001 C CNN
F 3 "~" H 2650 1200 50  0001 C CNN
	1    2650 1200
	1    0    0    -1  
$EndComp
$Comp
L Device:C_Small C10
U 1 1 61F744F7
P 6850 1350
F 0 "C10" H 6942 1396 50  0000 L CNN
F 1 "4.7uF" H 6942 1305 50  0000 L CNN
F 2 "Capacitor_SMD:C_0603_1608Metric_Pad1.08x0.95mm_HandSolder" H 6850 1350 50  0001 C CNN
F 3 "https://pl.mouser.com/datasheet/2/585/MLCC-1837944.pdf" H 6850 1350 50  0001 C CNN
F 4 "CL10A475KP8NNNC " H 6850 1350 50  0001 C CNN "Name"
	1    6850 1350
	1    0    0    -1  
$EndComp
$Comp
L Device:C_Small C7
U 1 1 61F77BE6
P 5200 1000
F 0 "C7" H 5292 1046 50  0000 L CNN
F 1 "4.7uF" H 5292 955 50  0000 L CNN
F 2 "Capacitor_SMD:C_0603_1608Metric_Pad1.08x0.95mm_HandSolder" H 5200 1000 50  0001 C CNN
F 3 "https://pl.mouser.com/datasheet/2/585/MLCC-1837944.pdf" H 5200 1000 50  0001 C CNN
F 4 "CL10A475KP8NNNC " H 5200 1000 50  0001 C CNN "Name"
	1    5200 1000
	1    0    0    -1  
$EndComp
Connection ~ 5300 2650
$Comp
L Connector_Generic:Conn_02x10_Odd_Even J2
U 1 1 61FAE2EA
P 9150 1700
F 0 "J2" H 9200 2317 50  0000 C CNN
F 1 "Conn_02x10_Odd_Even" H 9200 2226 50  0000 C CNN
F 2 "Connector_PinSocket_2.54mm:PinSocket_2x10_P2.54mm_Horizontal" H 9150 1700 50  0001 C CNN
F 3 "~" H 9150 1700 50  0001 C CNN
	1    9150 1700
	1    0    0    -1  
$EndComp
$Comp
L Connector:TestPoint TP1
U 1 1 61FB334D
P 2650 750
F 0 "TP1" H 2708 868 50  0000 L CNN
F 1 "TestPoint" H 2708 777 50  0000 L CNN
F 2 "TestPoint:TestPoint_Plated_Hole_D2.0mm" H 2850 750 50  0001 C CNN
F 3 "~" H 2850 750 50  0001 C CNN
	1    2650 750 
	1    0    0    -1  
$EndComp
$Comp
L Connector:TestPoint TP2
U 1 1 61FB4322
P 4850 750
F 0 "TP2" H 4908 868 50  0000 L CNN
F 1 "TestPoint" H 4908 777 50  0000 L CNN
F 2 "TestPoint:TestPoint_Plated_Hole_D2.0mm" H 5050 750 50  0001 C CNN
F 3 "~" H 5050 750 50  0001 C CNN
	1    4850 750 
	1    0    0    -1  
$EndComp
$Comp
L Connector:TestPoint TP3
U 1 1 61FB5871
P 5850 2100
F 0 "TP3" H 5908 2218 50  0000 L CNN
F 1 "TestPoint" H 5908 2127 50  0000 L CNN
F 2 "TestPoint:TestPoint_Plated_Hole_D2.0mm" H 6050 2100 50  0001 C CNN
F 3 "~" H 6050 2100 50  0001 C CNN
	1    5850 2100
	1    0    0    -1  
$EndComp
$Comp
L Connector:TestPoint TP4
U 1 1 61FB5F2A
P 6500 1100
F 0 "TP4" H 6558 1218 50  0000 L CNN
F 1 "TestPoint" H 6558 1127 50  0000 L CNN
F 2 "TestPoint:TestPoint_Plated_Hole_D2.0mm" H 6700 1100 50  0001 C CNN
F 3 "~" H 6700 1100 50  0001 C CNN
	1    6500 1100
	1    0    0    -1  
$EndComp
Wire Wire Line
	6500 1100 6500 1150
Wire Wire Line
	5850 2100 5850 2150
Wire Wire Line
	4850 750  4850 800 
Wire Wire Line
	2650 750  2650 800 
$Comp
L power:+3V3 #PWR?
U 1 1 61FBCAD2
P 8950 2100
F 0 "#PWR?" H 8950 1950 50  0001 C CNN
F 1 "+3V3" V 8950 2350 50  0000 C CNN
F 2 "" H 8950 2100 50  0001 C CNN
F 3 "" H 8950 2100 50  0001 C CNN
	1    8950 2100
	0    -1   -1   0   
$EndComp
$Comp
L power:+3V3 #PWR?
U 1 1 61FBD640
P 9450 2000
F 0 "#PWR?" H 9450 1850 50  0001 C CNN
F 1 "+3V3" V 9450 2200 50  0000 C CNN
F 2 "" H 9450 2000 50  0001 C CNN
F 3 "" H 9450 2000 50  0001 C CNN
	1    9450 2000
	0    1    1    0   
$EndComp
$Comp
L power:+3V3 #PWR?
U 1 1 61FBE0AA
P 8950 1900
F 0 "#PWR?" H 8950 1750 50  0001 C CNN
F 1 "+3V3" V 8950 2150 50  0000 C CNN
F 2 "" H 8950 1900 50  0001 C CNN
F 3 "" H 8950 1900 50  0001 C CNN
	1    8950 1900
	0    -1   -1   0   
$EndComp
$Comp
L power:+3V3 #PWR?
U 1 1 61FBE906
P 9450 1800
F 0 "#PWR?" H 9450 1650 50  0001 C CNN
F 1 "+3V3" V 9450 2000 50  0000 C CNN
F 2 "" H 9450 1800 50  0001 C CNN
F 3 "" H 9450 1800 50  0001 C CNN
	1    9450 1800
	0    1    1    0   
$EndComp
$Comp
L power:GND #PWR?
U 1 1 61FBF18E
P 8950 2200
F 0 "#PWR?" H 8950 1950 50  0001 C CNN
F 1 "GND" V 8950 2000 50  0000 C CNN
F 2 "" H 8950 2200 50  0001 C CNN
F 3 "" H 8950 2200 50  0001 C CNN
	1    8950 2200
	0    1    1    0   
$EndComp
$Comp
L power:GND #PWR?
U 1 1 61FBF7B6
P 9450 2200
F 0 "#PWR?" H 9450 1950 50  0001 C CNN
F 1 "GND" V 9450 2000 50  0000 C CNN
F 2 "" H 9450 2200 50  0001 C CNN
F 3 "" H 9450 2200 50  0001 C CNN
	1    9450 2200
	0    -1   -1   0   
$EndComp
$Comp
L power:GND #PWR?
U 1 1 61FBFFA2
P 9450 2100
F 0 "#PWR?" H 9450 1850 50  0001 C CNN
F 1 "GND" V 9450 1900 50  0000 C CNN
F 2 "" H 9450 2100 50  0001 C CNN
F 3 "" H 9450 2100 50  0001 C CNN
	1    9450 2100
	0    -1   -1   0   
$EndComp
$Comp
L power:GND #PWR?
U 1 1 61FC031A
P 8950 2000
F 0 "#PWR?" H 8950 1750 50  0001 C CNN
F 1 "GND" V 8950 1800 50  0000 C CNN
F 2 "" H 8950 2000 50  0001 C CNN
F 3 "" H 8950 2000 50  0001 C CNN
	1    8950 2000
	0    1    1    0   
$EndComp
$Comp
L power:GND #PWR?
U 1 1 61FC083A
P 9450 1900
F 0 "#PWR?" H 9450 1650 50  0001 C CNN
F 1 "GND" V 9450 1700 50  0000 C CNN
F 2 "" H 9450 1900 50  0001 C CNN
F 3 "" H 9450 1900 50  0001 C CNN
	1    9450 1900
	0    -1   -1   0   
$EndComp
$Comp
L power:GND #PWR?
U 1 1 61FC0C30
P 8950 1800
F 0 "#PWR?" H 8950 1550 50  0001 C CNN
F 1 "GND" V 8950 1600 50  0000 C CNN
F 2 "" H 8950 1800 50  0001 C CNN
F 3 "" H 8950 1800 50  0001 C CNN
	1    8950 1800
	0    1    1    0   
$EndComp
$Comp
L power:GND #PWR?
U 1 1 61FC155A
P 8950 1700
F 0 "#PWR?" H 8950 1450 50  0001 C CNN
F 1 "GND" V 8950 1500 50  0000 C CNN
F 2 "" H 8950 1700 50  0001 C CNN
F 3 "" H 8950 1700 50  0001 C CNN
	1    8950 1700
	0    1    1    0   
$EndComp
$Comp
L power:GND #PWR?
U 1 1 61FC17A2
P 9450 1700
F 0 "#PWR?" H 9450 1450 50  0001 C CNN
F 1 "GND" V 9450 1500 50  0000 C CNN
F 2 "" H 9450 1700 50  0001 C CNN
F 3 "" H 9450 1700 50  0001 C CNN
	1    9450 1700
	0    -1   -1   0   
$EndComp
$Comp
L power:GND #PWR?
U 1 1 61FC1D9C
P 9450 1300
F 0 "#PWR?" H 9450 1050 50  0001 C CNN
F 1 "GND" V 9450 1100 50  0000 C CNN
F 2 "" H 9450 1300 50  0001 C CNN
F 3 "" H 9450 1300 50  0001 C CNN
	1    9450 1300
	0    -1   -1   0   
$EndComp
$Comp
L power:GND #PWR?
U 1 1 61FC1FFC
P 8950 1300
F 0 "#PWR?" H 8950 1050 50  0001 C CNN
F 1 "GND" V 8950 1100 50  0000 C CNN
F 2 "" H 8950 1300 50  0001 C CNN
F 3 "" H 8950 1300 50  0001 C CNN
	1    8950 1300
	0    1    1    0   
$EndComp
$Comp
L power:+5VA #PWR?
U 1 1 61FC25F3
P 9450 1400
F 0 "#PWR?" H 9450 1250 50  0001 C CNN
F 1 "+5VA" V 9450 1600 50  0000 C CNN
F 2 "" H 9450 1400 50  0001 C CNN
F 3 "" H 9450 1400 50  0001 C CNN
	1    9450 1400
	0    1    1    0   
$EndComp
$Comp
L power:+5VA #PWR?
U 1 1 61FC2E24
P 8950 1400
F 0 "#PWR?" H 8950 1250 50  0001 C CNN
F 1 "+5VA" V 8950 1650 50  0000 C CNN
F 2 "" H 8950 1400 50  0001 C CNN
F 3 "" H 8950 1400 50  0001 C CNN
	1    8950 1400
	0    -1   -1   0   
$EndComp
$Comp
L power:+9VA #PWR?
U 1 1 61FC36E7
P 8950 1600
F 0 "#PWR?" H 8950 1475 50  0001 C CNN
F 1 "+9VA" V 8950 1850 50  0000 C CNN
F 2 "" H 8950 1600 50  0001 C CNN
F 3 "" H 8950 1600 50  0001 C CNN
	1    8950 1600
	0    -1   -1   0   
$EndComp
$Comp
L power:+9VA #PWR?
U 1 1 61FC3EEE
P 9450 1600
F 0 "#PWR?" H 9450 1475 50  0001 C CNN
F 1 "+9VA" V 9450 1800 50  0000 C CNN
F 2 "" H 9450 1600 50  0001 C CNN
F 3 "" H 9450 1600 50  0001 C CNN
	1    9450 1600
	0    1    1    0   
$EndComp
$Comp
L power:GND #PWR?
U 1 1 61FC4533
P 9450 1500
F 0 "#PWR?" H 9450 1250 50  0001 C CNN
F 1 "GND" V 9450 1300 50  0000 C CNN
F 2 "" H 9450 1500 50  0001 C CNN
F 3 "" H 9450 1500 50  0001 C CNN
	1    9450 1500
	0    -1   -1   0   
$EndComp
$Comp
L power:GND #PWR?
U 1 1 61FC483F
P 8950 1500
F 0 "#PWR?" H 8950 1250 50  0001 C CNN
F 1 "GND" V 8950 1300 50  0000 C CNN
F 2 "" H 8950 1500 50  0001 C CNN
F 3 "" H 8950 1500 50  0001 C CNN
	1    8950 1500
	0    1    1    0   
$EndComp
Wire Wire Line
	7350 2100 7350 2150
Connection ~ 7350 2150
Wire Wire Line
	6750 2150 7350 2150
Wire Wire Line
	7200 1150 7200 1200
Wire Wire Line
	7200 1100 7200 1150
Connection ~ 7200 1150
Wire Wire Line
	6850 1150 7200 1150
Connection ~ 6850 1150
Wire Wire Line
	6500 1150 6850 1150
Wire Wire Line
	3150 2150 3100 2150
Wire Wire Line
	3100 800  3100 2150
Wire Wire Line
	5300 2650 5850 2650
$EndSCHEMATC
